<?xml version="1.0" standalone="no" ?>
<!DOCTYPE svg PUBLIC "-//W3C//DTD SVG 20010904//EN"
  "http://www.w3.org/TR/2001/REC-SVG-20010904/DTD/svg10.dtd">
<svg
  version="1.0"
  xmlns="http://www.w3.org/2000/svg"
  width="428.000000pt"
  height="104.000000pt"
  viewBox="0 0 428.000000 104.000000"
  preserveAspectRatio="xMidYMid meet"
>

<g
    transform="translate(0.000000,104.000000) scale(0.100000,-0.100000)"
    fill="#ee4c77"
    stroke="none"
  >
<path
      d="M543 1005 c-104 -29 -187 -101 -237 -205 -27 -57 -31 -75 -31 -150 1
-103 28 -172 99 -248 208 -222 571 -110 627 194 46 248 -212 478 -458 409z
m168 -136 c123 -37 192 -190 138 -309 -27 -60 -54 -88 -114 -116 -88 -42 -180
-28 -251 38 -56 51 -78 109 -72 187 11 151 150 244 299 200z"
    />
<path
      d="M1540 953 c-84 -31 -78 -147 10 -167 33 -8 87 25 96 59 10 40 -4 74
-39 95 -33 21 -42 22 -67 13z"
    />
<path
      d="M80 943 c-93 -35 -72 -167 27 -167 43 0 83 40 83 84 0 52 -65 100
-110 83z"
    />
<path
      d="M1925 721 c-69 -18 -132 -67 -162 -126 -21 -40 -29 -153 -14 -198 22
-64 68 -117 129 -145 171 -78 361 23 379 202 15 146 -90 264 -242 272 -33 2
-73 0 -90 -5z m166 -147 c73 -70 47 -183 -51 -224 -96 -40 -199 62 -170 168
25 95 148 126 221 56z"
    />
<path
      d="M2490 717 c-54 -18 -100 -50 -100 -67 0 -8 10 -27 23 -43 l22 -27 50
26 c37 19 60 24 88 21 46 -6 89 -43 85 -72 -3 -17 -13 -21 -73 -28 -113 -12
-169 -32 -205 -74 -29 -33 -32 -41 -28 -88 2 -29 13 -63 24 -78 41 -56 151
-74 224 -37 22 11 40 25 40 30 0 21 20 9 26 -15 6 -23 11 -25 65 -25 l59 0 0
158 c0 207 -19 270 -92 308 -40 21 -163 27 -208 11z m174 -283 c8 -22 -18 -78
-45 -98 -30 -21 -97 -21 -121 1 -34 31 -17 88 32 106 8 3 40 6 71 6 43 1 58
-3 63 -15z"
    />
<path
      d="M3028 721 c-82 -27 -118 -72 -118 -151 0 -68 31 -100 123 -129 92
-28 107 -38 107 -66 0 -50 -78 -60 -149 -20 -23 14 -44 25 -46 25 -8 0 -45
-69 -45 -83 0 -9 24 -27 58 -44 146 -72 328 1 320 129 -4 76 -42 110 -165 147
-68 20 -73 24 -73 49 0 16 5 33 12 40 17 17 70 15 118 -4 23 -9 42 -15 44 -13
1 2 12 17 24 33 12 16 22 32 22 37 0 33 -170 70 -232 50z"
    />
<path
      d="M3996 716 c-83 -31 -128 -106 -107 -177 15 -50 49 -75 135 -101 84
-25 96 -33 96 -64 0 -49 -78 -59 -148 -18 l-45 27 -18 -24 c-41 -54 -35 -75
35 -112 61 -31 176 -30 234 3 78 44 104 128 62 197 -22 37 -51 54 -135 78 -33
9 -66 22 -72 27 -16 13 -17 50 -1 66 16 16 71 15 115 -3 19 -8 39 -15 43 -15
8 0 50 62 50 73 0 4 -19 16 -42 28 -54 27 -149 34 -202 15z"
    />
<path
      d="M59 699 c-20 -20 -21 -29 -16 -103 17 -254 204 -466 467 -532 90 -23
231 -15 322 19 199 72 348 238 392 434 24 109 22 157 -10 182 -62 48 -99 16
-113 -97 -42 -327 -375 -509 -668 -366 -150 72 -242 208 -259 380 -6 53 -12
68 -32 84 -32 26 -57 25 -83 -1z"
    />
<path d="M1490 475 l0 -236 68 3 67 3 3 233 2 232 -70 0 -70 0 0 -235z" />
<path
      d="M3340 702 c0 -5 41 -107 92 -228 56 -136 91 -232 91 -252 -1 -23 -10
-44 -30 -64 -24 -26 -33 -29 -66 -24 -34 6 -39 4 -57 -26 -28 -45 -25 -57 15
-74 82 -34 184 -6 230 64 13 20 67 154 119 297 52 143 99 273 105 288 l11 28
-71 -3 -72 -3 -44 -145 c-24 -80 -48 -149 -53 -154 -11 -11 -10 -13 -71 164
l-46 135 -76 3 c-43 2 -77 -1 -77 -6z"
    />
</g>
</svg>
